<?xml version="1.0" encoding="UTF-8" standalone="no"?>
<!-- Created with Inkscape (http://www.inkscape.org/) -->

<svg
   width="156.27766mm"
   height="32.064999mm"
   viewBox="0 0 156.27766 32.064999"
   version="1.1"
   id="svg3067"
   xmlns="http://www.w3.org/2000/svg"
   xmlns:svg="http://www.w3.org/2000/svg">
  <defs
     id="defs3064" />
  <path
     id="path6456-2-9"
     style="display:inline;fill:#222233;fill-opacity:1;stroke:none;stroke-width:0.264583px;stroke-linecap:butt;stroke-linejoin:miter;stroke-opacity:1"
     d="M 57.55083,0 C 52.42273,0 39.22285,0.87525 39.22285,9.64931 C 39.22285,18.07506 51.40716,18.6581 55.39036,19.27718 C 59.37358,19.89627 66.06399,20.22943 66.06399,22.75716 C 66.06399,24.13314 65.99015,25.9804 57.55083,25.9804 C 49.27844,25.9804 48.23053,21.38082 48.23053,21.38082 C 48.23053,21.38082 44.03995,18.50929 37.33833,19.91226 C 40.07559,28.29452 43.76669,29.86413 45.3668,30.29286 C 49.33601,31.35639 53.31677,32.065 57.55083,32.065 C 63.70702,32.065 77.44087,32.06484 77.44087,21.36935 C 77.44087,14.32629 66.01225,13.10767 60.57112,12.21106 C 55.13,11.31444 50.65194,11.49078 50.65194,8.68871 C 50.65194,7.01557 53.06948,6.10553 57.55083,6.10553 C 64.9701,6.10553 66.32442,9.48082 66.32442,9.48082 C 66.32442,9.48082 71.63856,12.74925 77.45173,11.19164 C 74.86887,3.42738 69.78471,1.68766 67.54805,1.23825 C 63.6169,0.44838 60.11768,0 57.55083,0 Z M 6.39456,0.59769 C 6.39456,0.59769 3.606,0.59764 0,1.66496 L 1.50008,8.38812 C 4.51783,8.38812 6.44418,7.69621 8.17006,7.69621 C 10.03493,7.69621 13.77918,8.38812 13.77918,8.38812 V 19.7687 C 13.77918,22.33723 12.64599,24.63251 12.64599,26.72315 C 12.64599,28.81378 13.72699,31.403 13.72699,31.403 H 25.12972 C 25.12972,31.403 26.21021,28.81378 26.21021,26.72315 C 26.21021,24.63251 25.07702,22.33723 25.07702,19.7687 V 8.38812 C 25.07702,8.38812 29.31784,7.69621 31.18271,7.69621 C 32.9086,7.69621 34.6069,8.38812 37.4977,8.38812 L 38.99778,1.66496 C 36.25309,0.59764 33.02694,0.59769 33.02694,0.59769 Z M 85.46676,0.59769 C 84.08921,0.59769 78.61936,1.66496 76.88383,1.66496 C 76.88383,1.66496 80.18731,6.10267 80.18731,7.87767 V 19.81107 C 80.18731,21.28863 79.16262,23.30304 79.16262,24.78501 C 79.16262,27.66001 80.97326,31.403 80.97326,31.403 H 91.75126 C 91.75126,31.403 92.4938,28.91659 92.4938,26.72315 C 92.4938,25.30044 91.4128,21.70424 91.4128,19.81107 C 91.4128,19.81107 95.89329,19.11068 97.55673,19.11068 L 103.38858,19.17051 C 106.06523,19.19799 107.95959,19.79063 111.38552,19.81107 L 111.88572,13.64124 C 111.88572,13.64124 106.31892,12.57396 103.83917,12.57396 L 96.74134,12.90894 C 93.902,12.90894 91.4128,12.57994 91.4128,12.57994 V 7.87767 C 91.4128,7.87767 93.2287,7.18576 96.34035,7.18576 L 104.08772,7.18128 C 107.78486,7.18128 108.12255,7.87119 113.88548,7.87119 L 114.38568,1.66496 C 112.06693,0.87506 107.97045,0.59769 107.97045,0.59769 Z M 116.49755,0.59769 C 116.3274,4.14157 117.19773,5.70402 117.19773,7.87767 L 117.01842,24.78501 C 117.01842,26.72308 115.88247,28.95127 116.53941,31.403 H 144.74471 C 147.93936,31.403 156.27766,29.89332 156.27766,22.43663 C 156.27766,20.50161 155.57424,17.02258 149.24855,15.32763 C 151.03453,14.29648 154.45567,12.90282 154.45567,8.53618 C 154.45567,4.21255 150.43955,0.59769 142.24528,0.59769 Z M 137.49599,6.76304 C 139.58206,6.76677 143.24465,6.96696 143.24465,9.92697 C 143.24465,11.66356 140.98982,12.76588 138.46073,12.76588 H 132.56689 C 131.07576,12.76588 128.31677,12.29331 128.31677,12.29331 V 7.18576 C 128.31677,7.18576 130.73182,6.77302 132.56689,6.77302 L 136.71366,6.76603 C 136.93205,6.76603 137.19799,6.76251 137.49599,6.76304 Z M 136.71366,18.75825 C 139.92188,18.75305 144.69252,18.89377 144.69252,22.01839 C 144.69252,23.70965 143.76149,25.27604 138.45246,25.27604 H 132.56689 C 130.56489,25.26646 128.31677,24.78501 128.31677,24.78501 V 19.14957 C 128.31677,19.14957 130.31646,18.76888 132.56689,18.76524 Z" />
</svg>
